{
    "gstreamer": [
        {
            "date": "2021-12-07T11:15:02Z",
            "n_issues": 537,
            "n_mrs": 257
        }
    ],
    "gst-plugins-base": [
        {
            "date": "2021-12-07T11:15:02Z",
            "n_issues": 647,
            "n_mrs": 93
        }
    ],
    "gst-plugins-good": [
        {
            "date": "2021-12-07T11:15:02Z",
            "n_issues": 644,
            "n_mrs": 96
        }
    ],
    "gst-plugins-bad": [
        {
            "date": "2021-12-07T11:15:02Z",
            "n_issues": 1013,
            "n_mrs": 151
        }
    ],
    "gst-plugins-ugly": [
        {
            "date": "2021-12-07T11:15:02Z",
            "n_issues": 23,
            "n_mrs": 4
        }
    ],
    "gst-libav": [
        {
            "date": "2021-12-07T11:15:02Z",
            "n_issues": 67,
            "n_mrs": 8
        }
    ],
    "gst-rtsp-server": [
        {
            "date": "2021-12-07T11:15:02Z",
            "n_issues": 88,
            "n_mrs": 10
        }
    ],
    "gstreamer-vaapi": [
        {
            "date": "2021-12-07T11:15:02Z",
            "n_issues": 142,
            "n_mrs": 11
        }
    ],
    "gstreamer-sharp": [
        {
            "date": "2021-12-07T11:15:02Z",
            "n_issues": 36,
            "n_mrs": 3
        }
    ],
    "gst-python": [
        {
            "date": "2021-12-07T11:15:02Z",
            "n_issues": 37,
            "n_mrs": 1
        }
    ],
    "gst-omx": [
        {
            "date": "2021-12-07T11:15:02Z",
            "n_issues": 30,
            "n_mrs": 2
        }
    ],
    "gst-editing-services": [
        {
            "date": "2021-12-07T11:15:02Z",
            "n_issues": 74,
            "n_mrs": 9
        }
    ],
    "gst-devtools": [
        {
            "date": "2021-12-07T11:15:02Z",
            "n_issues": 36,
            "n_mrs": 9
        }
    ],
    "gst-integration-testsuites": [
        {
            "date": "2021-12-07T11:15:02Z",
            "n_issues": 1,
            "n_mrs": 7
        }
    ],
    "gst-docs": [
        {
            "date": "2021-12-07T11:15:02Z",
            "n_issues": 51,
            "n_mrs": 13
        }
    ],
    "gst-examples": [
        {
            "date": "2021-12-07T11:15:02Z",
            "n_issues": 27,
            "n_mrs": 4
        }
    ],
    "gst-build": [
        {
            "date": "2021-12-07T11:15:02Z",
            "n_issues": 44,
            "n_mrs": 6
        }
    ],
    "gst-ci": [
        {
            "date": "2021-12-07T11:15:02Z",
            "n_issues": 36,
            "n_mrs": 13
        }
    ],
    "cerbero": [
        {
            "date": "2021-12-07T11:15:02Z",
            "n_issues": 94,
            "n_mrs": 28
        }
    ]
}
