{
    "gstreamer": [
        {
            "date": "2021-11-15T17:15:02Z",
            "n_issues": 525,
            "n_mrs": 231
        }
    ],
    "gst-plugins-base": [
        {
            "date": "2021-11-15T17:15:02Z",
            "n_issues": 647,
            "n_mrs": 95
        }
    ],
    "gst-plugins-good": [
        {
            "date": "2021-11-15T17:15:02Z",
            "n_issues": 644,
            "n_mrs": 98
        }
    ],
    "gst-plugins-bad": [
        {
            "date": "2021-11-15T17:15:02Z",
            "n_issues": 1013,
            "n_mrs": 152
        }
    ],
    "gst-plugins-ugly": [
        {
            "date": "2021-11-15T17:15:02Z",
            "n_issues": 23,
            "n_mrs": 4
        }
    ],
    "gst-libav": [
        {
            "date": "2021-11-15T17:15:02Z",
            "n_issues": 66,
            "n_mrs": 8
        }
    ],
    "gst-rtsp-server": [
        {
            "date": "2021-11-15T17:15:02Z",
            "n_issues": 87,
            "n_mrs": 10
        }
    ],
    "gstreamer-vaapi": [
        {
            "date": "2021-11-15T17:15:02Z",
            "n_issues": 141,
            "n_mrs": 12
        }
    ],
    "gstreamer-sharp": [
        {
            "date": "2021-11-15T17:15:02Z",
            "n_issues": 36,
            "n_mrs": 3
        }
    ],
    "gst-python": [
        {
            "date": "2021-11-15T17:15:02Z",
            "n_issues": 38,
            "n_mrs": 1
        }
    ],
    "gst-omx": [
        {
            "date": "2021-11-15T17:15:02Z",
            "n_issues": 30,
            "n_mrs": 2
        }
    ],
    "gst-editing-services": [
        {
            "date": "2021-11-15T17:15:02Z",
            "n_issues": 74,
            "n_mrs": 9
        }
    ],
    "gst-devtools": [
        {
            "date": "2021-11-15T17:15:02Z",
            "n_issues": 36,
            "n_mrs": 9
        }
    ],
    "gst-integration-testsuites": [
        {
            "date": "2021-11-15T17:15:02Z",
            "n_issues": 1,
            "n_mrs": 7
        }
    ],
    "gst-docs": [
        {
            "date": "2021-11-15T17:15:02Z",
            "n_issues": 50,
            "n_mrs": 13
        }
    ],
    "gst-examples": [
        {
            "date": "2021-11-15T17:15:02Z",
            "n_issues": 27,
            "n_mrs": 4
        }
    ],
    "gst-build": [
        {
            "date": "2021-11-15T17:15:02Z",
            "n_issues": 44,
            "n_mrs": 6
        }
    ],
    "gst-ci": [
        {
            "date": "2021-11-15T17:15:02Z",
            "n_issues": 37,
            "n_mrs": 13
        }
    ],
    "cerbero": [
        {
            "date": "2021-11-15T17:15:02Z",
            "n_issues": 92,
            "n_mrs": 27
        }
    ]
}
