{
    "gstreamer": [
        {
            "date": "2021-10-05T10:15:01Z",
            "n_issues": 433,
            "n_mrs": 191
        }
    ],
    "gst-plugins-base": [
        {
            "date": "2021-10-05T10:15:01Z",
            "n_issues": 653,
            "n_mrs": 106
        }
    ],
    "gst-plugins-good": [
        {
            "date": "2021-10-05T10:15:01Z",
            "n_issues": 652,
            "n_mrs": 116
        }
    ],
    "gst-plugins-bad": [
        {
            "date": "2021-10-05T10:15:01Z",
            "n_issues": 1048,
            "n_mrs": 180
        }
    ],
    "gst-plugins-ugly": [
        {
            "date": "2021-10-05T10:15:01Z",
            "n_issues": 25,
            "n_mrs": 4
        }
    ],
    "gst-libav": [
        {
            "date": "2021-10-05T10:15:01Z",
            "n_issues": 65,
            "n_mrs": 8
        }
    ],
    "gst-rtsp-server": [
        {
            "date": "2021-10-05T10:15:01Z",
            "n_issues": 89,
            "n_mrs": 11
        }
    ],
    "gstreamer-vaapi": [
        {
            "date": "2021-10-05T10:15:01Z",
            "n_issues": 138,
            "n_mrs": 13
        }
    ],
    "gstreamer-sharp": [
        {
            "date": "2021-10-05T10:15:01Z",
            "n_issues": 37,
            "n_mrs": 3
        }
    ],
    "gst-python": [
        {
            "date": "2021-10-05T10:15:01Z",
            "n_issues": 35,
            "n_mrs": 1
        }
    ],
    "gst-omx": [
        {
            "date": "2021-10-05T10:15:01Z",
            "n_issues": 32,
            "n_mrs": 2
        }
    ],
    "gst-editing-services": [
        {
            "date": "2021-10-05T10:15:01Z",
            "n_issues": 78,
            "n_mrs": 9
        }
    ],
    "gst-devtools": [
        {
            "date": "2021-10-05T10:15:01Z",
            "n_issues": 36,
            "n_mrs": 10
        }
    ],
    "gst-integration-testsuites": [
        {
            "date": "2021-10-05T10:15:01Z",
            "n_issues": 1,
            "n_mrs": 7
        }
    ],
    "gst-docs": [
        {
            "date": "2021-10-05T10:15:01Z",
            "n_issues": 51,
            "n_mrs": 21
        }
    ],
    "gst-examples": [
        {
            "date": "2021-10-05T10:15:01Z",
            "n_issues": 25,
            "n_mrs": 3
        }
    ],
    "gst-build": [
        {
            "date": "2021-10-05T10:15:01Z",
            "n_issues": 44,
            "n_mrs": 8
        }
    ],
    "gst-ci": [
        {
            "date": "2021-10-05T10:15:01Z",
            "n_issues": 36,
            "n_mrs": 15
        }
    ],
    "cerbero": [
        {
            "date": "2021-10-05T10:15:01Z",
            "n_issues": 95,
            "n_mrs": 32
        }
    ]
}
