{
    "gstreamer": [
        {
            "date": "2021-12-22T17:15:02Z",
            "n_issues": 545,
            "n_mrs": 268
        }
    ],
    "gst-plugins-base": [
        {
            "date": "2021-12-22T17:15:02Z",
            "n_issues": 648,
            "n_mrs": 93
        }
    ],
    "gst-plugins-good": [
        {
            "date": "2021-12-22T17:15:02Z",
            "n_issues": 645,
            "n_mrs": 96
        }
    ],
    "gst-plugins-bad": [
        {
            "date": "2021-12-22T17:15:02Z",
            "n_issues": 1011,
            "n_mrs": 149
        }
    ],
    "gst-plugins-ugly": [
        {
            "date": "2021-12-22T17:15:02Z",
            "n_issues": 23,
            "n_mrs": 4
        }
    ],
    "gst-libav": [
        {
            "date": "2021-12-22T17:15:02Z",
            "n_issues": 68,
            "n_mrs": 8
        }
    ],
    "gst-rtsp-server": [
        {
            "date": "2021-12-22T17:15:02Z",
            "n_issues": 88,
            "n_mrs": 10
        }
    ],
    "gstreamer-vaapi": [
        {
            "date": "2021-12-22T17:15:02Z",
            "n_issues": 142,
            "n_mrs": 11
        }
    ],
    "gstreamer-sharp": [
        {
            "date": "2021-12-22T17:15:02Z",
            "n_issues": 36,
            "n_mrs": 3
        }
    ],
    "gst-python": [
        {
            "date": "2021-12-22T17:15:02Z",
            "n_issues": 37,
            "n_mrs": 1
        }
    ],
    "gst-omx": [
        {
            "date": "2021-12-22T17:15:02Z",
            "n_issues": 31,
            "n_mrs": 2
        }
    ],
    "gst-editing-services": [
        {
            "date": "2021-12-22T17:15:02Z",
            "n_issues": 74,
            "n_mrs": 9
        }
    ],
    "gst-devtools": [
        {
            "date": "2021-12-22T17:15:02Z",
            "n_issues": 36,
            "n_mrs": 9
        }
    ],
    "gst-integration-testsuites": [
        {
            "date": "2021-12-22T17:15:02Z",
            "n_issues": 1,
            "n_mrs": 7
        }
    ],
    "gst-docs": [
        {
            "date": "2021-12-22T17:15:02Z",
            "n_issues": 51,
            "n_mrs": 13
        }
    ],
    "gst-examples": [
        {
            "date": "2021-12-22T17:15:02Z",
            "n_issues": 27,
            "n_mrs": 4
        }
    ],
    "gst-build": [
        {
            "date": "2021-12-22T17:15:02Z",
            "n_issues": 44,
            "n_mrs": 6
        }
    ],
    "gst-ci": [
        {
            "date": "2021-12-22T17:15:02Z",
            "n_issues": 36,
            "n_mrs": 13
        }
    ],
    "cerbero": [
        {
            "date": "2021-12-22T17:15:02Z",
            "n_issues": 94,
            "n_mrs": 28
        }
    ]
}
