{
    "gstreamer": [
        {
            "date": "2021-10-22T10:15:02Z",
            "n_issues": 504,
            "n_mrs": 217
        }
    ],
    "gst-plugins-base": [
        {
            "date": "2021-10-22T10:15:02Z",
            "n_issues": 647,
            "n_mrs": 97
        }
    ],
    "gst-plugins-good": [
        {
            "date": "2021-10-22T10:15:02Z",
            "n_issues": 646,
            "n_mrs": 100
        }
    ],
    "gst-plugins-bad": [
        {
            "date": "2021-10-22T10:15:02Z",
            "n_issues": 1013,
            "n_mrs": 158
        }
    ],
    "gst-plugins-ugly": [
        {
            "date": "2021-10-22T10:15:02Z",
            "n_issues": 24,
            "n_mrs": 4
        }
    ],
    "gst-libav": [
        {
            "date": "2021-10-22T10:15:02Z",
            "n_issues": 65,
            "n_mrs": 8
        }
    ],
    "gst-rtsp-server": [
        {
            "date": "2021-10-22T10:15:02Z",
            "n_issues": 87,
            "n_mrs": 10
        }
    ],
    "gstreamer-vaapi": [
        {
            "date": "2021-10-22T10:15:02Z",
            "n_issues": 139,
            "n_mrs": 13
        }
    ],
    "gstreamer-sharp": [
        {
            "date": "2021-10-22T10:15:02Z",
            "n_issues": 36,
            "n_mrs": 3
        }
    ],
    "gst-python": [
        {
            "date": "2021-10-22T10:15:02Z",
            "n_issues": 36,
            "n_mrs": 1
        }
    ],
    "gst-omx": [
        {
            "date": "2021-10-22T10:15:02Z",
            "n_issues": 30,
            "n_mrs": 2
        }
    ],
    "gst-editing-services": [
        {
            "date": "2021-10-22T10:15:02Z",
            "n_issues": 73,
            "n_mrs": 9
        }
    ],
    "gst-devtools": [
        {
            "date": "2021-10-22T10:15:02Z",
            "n_issues": 36,
            "n_mrs": 9
        }
    ],
    "gst-integration-testsuites": [
        {
            "date": "2021-10-22T10:15:02Z",
            "n_issues": 1,
            "n_mrs": 7
        }
    ],
    "gst-docs": [
        {
            "date": "2021-10-22T10:15:02Z",
            "n_issues": 50,
            "n_mrs": 21
        }
    ],
    "gst-examples": [
        {
            "date": "2021-10-22T10:15:02Z",
            "n_issues": 26,
            "n_mrs": 3
        }
    ],
    "gst-build": [
        {
            "date": "2021-10-22T10:15:02Z",
            "n_issues": 43,
            "n_mrs": 6
        }
    ],
    "gst-ci": [
        {
            "date": "2021-10-22T10:15:02Z",
            "n_issues": 37,
            "n_mrs": 15
        }
    ],
    "cerbero": [
        {
            "date": "2021-10-22T10:15:02Z",
            "n_issues": 91,
            "n_mrs": 28
        }
    ]
}
