{
    "gstreamer": [
        {
            "date": "2022-06-14T04:15:01Z",
            "n_issues": 705,
            "n_mrs": 362
        }
    ],
    "gst-plugins-base": [
        {
            "date": "2022-06-14T04:15:01Z",
            "n_issues": 645,
            "n_mrs": 88
        }
    ],
    "gst-plugins-good": [
        {
            "date": "2022-06-14T04:15:01Z",
            "n_issues": 652,
            "n_mrs": 82
        }
    ],
    "gst-plugins-bad": [
        {
            "date": "2022-06-14T04:15:01Z",
            "n_issues": 986,
            "n_mrs": 130
        }
    ],
    "gst-plugins-ugly": [
        {
            "date": "2022-06-14T04:15:01Z",
            "n_issues": 23,
            "n_mrs": 3
        }
    ],
    "gst-libav": [
        {
            "date": "2022-06-14T04:15:01Z",
            "n_issues": 70,
            "n_mrs": 6
        }
    ],
    "gst-rtsp-server": [
        {
            "date": "2022-06-14T04:15:01Z",
            "n_issues": 93,
            "n_mrs": 10
        }
    ],
    "gstreamer-vaapi": [
        {
            "date": "2022-06-14T04:15:01Z",
            "n_issues": 145,
            "n_mrs": 10
        }
    ],
    "gstreamer-sharp": [
        {
            "date": "2022-06-14T04:15:01Z",
            "n_issues": 37,
            "n_mrs": 2
        }
    ],
    "gst-python": [
        {
            "date": "2022-06-14T04:15:01Z",
            "n_issues": 40,
            "n_mrs": 1
        }
    ],
    "gst-omx": [
        {
            "date": "2022-06-14T04:15:01Z",
            "n_issues": 31,
            "n_mrs": 2
        }
    ],
    "gst-editing-services": [
        {
            "date": "2022-06-14T04:15:01Z",
            "n_issues": 74,
            "n_mrs": 9
        }
    ],
    "gst-devtools": [
        {
            "date": "2022-06-14T04:15:01Z",
            "n_issues": 36,
            "n_mrs": 9
        }
    ],
    "gst-integration-testsuites": [
        {
            "date": "2022-06-14T04:15:01Z",
            "n_issues": 1,
            "n_mrs": 7
        }
    ],
    "gst-docs": [
        {
            "date": "2022-06-14T04:15:01Z",
            "n_issues": 58,
            "n_mrs": 14
        }
    ],
    "gst-examples": [
        {
            "date": "2022-06-14T04:15:01Z",
            "n_issues": 27,
            "n_mrs": 2
        }
    ],
    "gst-build": [
        {
            "date": "2022-06-14T04:15:01Z",
            "n_issues": 7,
            "n_mrs": 0
        }
    ],
    "gst-ci": [
        {
            "date": "2022-06-14T04:15:01Z",
            "n_issues": 36,
            "n_mrs": 12
        }
    ],
    "cerbero": [
        {
            "date": "2022-06-14T04:15:01Z",
            "n_issues": 99,
            "n_mrs": 34
        }
    ]
}
