{
    "gstreamer": [
        {
            "date": "2022-04-29T16:15:02Z",
            "n_issues": 657,
            "n_mrs": 340
        }
    ],
    "gst-plugins-base": [
        {
            "date": "2022-04-29T16:15:02Z",
            "n_issues": 647,
            "n_mrs": 88
        }
    ],
    "gst-plugins-good": [
        {
            "date": "2022-04-29T16:15:02Z",
            "n_issues": 649,
            "n_mrs": 84
        }
    ],
    "gst-plugins-bad": [
        {
            "date": "2022-04-29T16:15:02Z",
            "n_issues": 988,
            "n_mrs": 135
        }
    ],
    "gst-plugins-ugly": [
        {
            "date": "2022-04-29T16:15:02Z",
            "n_issues": 23,
            "n_mrs": 3
        }
    ],
    "gst-libav": [
        {
            "date": "2022-04-29T16:15:02Z",
            "n_issues": 70,
            "n_mrs": 6
        }
    ],
    "gst-rtsp-server": [
        {
            "date": "2022-04-29T16:15:02Z",
            "n_issues": 90,
            "n_mrs": 10
        }
    ],
    "gstreamer-vaapi": [
        {
            "date": "2022-04-29T16:15:02Z",
            "n_issues": 144,
            "n_mrs": 11
        }
    ],
    "gstreamer-sharp": [
        {
            "date": "2022-04-29T16:15:02Z",
            "n_issues": 36,
            "n_mrs": 1
        }
    ],
    "gst-python": [
        {
            "date": "2022-04-29T16:15:02Z",
            "n_issues": 40,
            "n_mrs": 1
        }
    ],
    "gst-omx": [
        {
            "date": "2022-04-29T16:15:02Z",
            "n_issues": 31,
            "n_mrs": 2
        }
    ],
    "gst-editing-services": [
        {
            "date": "2022-04-29T16:15:02Z",
            "n_issues": 74,
            "n_mrs": 9
        }
    ],
    "gst-devtools": [
        {
            "date": "2022-04-29T16:15:02Z",
            "n_issues": 36,
            "n_mrs": 9
        }
    ],
    "gst-integration-testsuites": [
        {
            "date": "2022-04-29T16:15:02Z",
            "n_issues": 1,
            "n_mrs": 7
        }
    ],
    "gst-docs": [
        {
            "date": "2022-04-29T16:15:02Z",
            "n_issues": 55,
            "n_mrs": 14
        }
    ],
    "gst-examples": [
        {
            "date": "2022-04-29T16:15:02Z",
            "n_issues": 26,
            "n_mrs": 4
        }
    ],
    "gst-build": [
        {
            "date": "2022-04-29T16:15:02Z",
            "n_issues": 8,
            "n_mrs": 0
        }
    ],
    "gst-ci": [
        {
            "date": "2022-04-29T16:15:02Z",
            "n_issues": 36,
            "n_mrs": 13
        }
    ],
    "cerbero": [
        {
            "date": "2022-04-29T16:15:02Z",
            "n_issues": 97,
            "n_mrs": 30
        }
    ]
}
