{
    "gstreamer": [
        {
            "date": "2022-04-10T22:15:02Z",
            "n_issues": 636,
            "n_mrs": 322
        }
    ],
    "gst-plugins-base": [
        {
            "date": "2022-04-10T22:15:02Z",
            "n_issues": 647,
            "n_mrs": 88
        }
    ],
    "gst-plugins-good": [
        {
            "date": "2022-04-10T22:15:02Z",
            "n_issues": 648,
            "n_mrs": 87
        }
    ],
    "gst-plugins-bad": [
        {
            "date": "2022-04-10T22:15:02Z",
            "n_issues": 999,
            "n_mrs": 138
        }
    ],
    "gst-plugins-ugly": [
        {
            "date": "2022-04-10T22:15:02Z",
            "n_issues": 23,
            "n_mrs": 3
        }
    ],
    "gst-libav": [
        {
            "date": "2022-04-10T22:15:02Z",
            "n_issues": 69,
            "n_mrs": 7
        }
    ],
    "gst-rtsp-server": [
        {
            "date": "2022-04-10T22:15:02Z",
            "n_issues": 90,
            "n_mrs": 10
        }
    ],
    "gstreamer-vaapi": [
        {
            "date": "2022-04-10T22:15:02Z",
            "n_issues": 144,
            "n_mrs": 11
        }
    ],
    "gstreamer-sharp": [
        {
            "date": "2022-04-10T22:15:02Z",
            "n_issues": 36,
            "n_mrs": 1
        }
    ],
    "gst-python": [
        {
            "date": "2022-04-10T22:15:02Z",
            "n_issues": 39,
            "n_mrs": 1
        }
    ],
    "gst-omx": [
        {
            "date": "2022-04-10T22:15:02Z",
            "n_issues": 31,
            "n_mrs": 2
        }
    ],
    "gst-editing-services": [
        {
            "date": "2022-04-10T22:15:02Z",
            "n_issues": 74,
            "n_mrs": 9
        }
    ],
    "gst-devtools": [
        {
            "date": "2022-04-10T22:15:02Z",
            "n_issues": 36,
            "n_mrs": 9
        }
    ],
    "gst-integration-testsuites": [
        {
            "date": "2022-04-10T22:15:02Z",
            "n_issues": 1,
            "n_mrs": 7
        }
    ],
    "gst-docs": [
        {
            "date": "2022-04-10T22:15:02Z",
            "n_issues": 54,
            "n_mrs": 14
        }
    ],
    "gst-examples": [
        {
            "date": "2022-04-10T22:15:02Z",
            "n_issues": 26,
            "n_mrs": 4
        }
    ],
    "gst-build": [
        {
            "date": "2022-04-10T22:15:02Z",
            "n_issues": 10,
            "n_mrs": 1
        }
    ],
    "gst-ci": [
        {
            "date": "2022-04-10T22:15:02Z",
            "n_issues": 36,
            "n_mrs": 13
        }
    ],
    "cerbero": [
        {
            "date": "2022-04-10T22:15:02Z",
            "n_issues": 97,
            "n_mrs": 33
        }
    ]
}
