{
    "gstreamer": [
        {
            "date": "2022-09-29T22:15:02Z",
            "n_issues": 802,
            "n_mrs": 399
        }
    ],
    "gst-plugins-base": [
        {
            "date": "2022-09-29T22:15:02Z",
            "n_issues": 643,
            "n_mrs": 82
        }
    ],
    "gst-plugins-good": [
        {
            "date": "2022-09-29T22:15:02Z",
            "n_issues": 649,
            "n_mrs": 77
        }
    ],
    "gst-plugins-bad": [
        {
            "date": "2022-09-29T22:15:02Z",
            "n_issues": 976,
            "n_mrs": 107
        }
    ],
    "gst-plugins-ugly": [
        {
            "date": "2022-09-29T22:15:02Z",
            "n_issues": 22,
            "n_mrs": 0
        }
    ],
    "gst-libav": [
        {
            "date": "2022-09-29T22:15:02Z",
            "n_issues": 70,
            "n_mrs": 5
        }
    ],
    "gst-rtsp-server": [
        {
            "date": "2022-09-29T22:15:02Z",
            "n_issues": 95,
            "n_mrs": 8
        }
    ],
    "gstreamer-vaapi": [
        {
            "date": "2022-09-29T22:15:02Z",
            "n_issues": 147,
            "n_mrs": 8
        }
    ],
    "gstreamer-sharp": [
        {
            "date": "2022-09-29T22:15:02Z",
            "n_issues": 38,
            "n_mrs": 1
        }
    ],
    "gst-python": [
        {
            "date": "2022-09-29T22:15:02Z",
            "n_issues": 42,
            "n_mrs": 1
        }
    ],
    "gst-omx": [
        {
            "date": "2022-09-29T22:15:02Z",
            "n_issues": 31,
            "n_mrs": 2
        }
    ],
    "gst-editing-services": [
        {
            "date": "2022-09-29T22:15:02Z",
            "n_issues": 74,
            "n_mrs": 3
        }
    ],
    "gst-devtools": [
        {
            "date": "2022-09-29T22:15:02Z",
            "n_issues": 36,
            "n_mrs": 7
        }
    ],
    "gst-integration-testsuites": [
        {
            "date": "2022-09-29T22:15:02Z",
            "n_issues": 1,
            "n_mrs": 6
        }
    ],
    "gst-docs": [
        {
            "date": "2022-09-29T22:15:02Z",
            "n_issues": 58,
            "n_mrs": 14
        }
    ],
    "gst-examples": [
        {
            "date": "2022-09-29T22:15:02Z",
            "n_issues": 28,
            "n_mrs": 1
        }
    ],
    "gst-build": [
        {
            "date": "2022-09-29T22:15:02Z",
            "n_issues": 5,
            "n_mrs": 0
        }
    ],
    "gst-ci": [
        {
            "date": "2022-09-29T22:15:02Z",
            "n_issues": 36,
            "n_mrs": 8
        }
    ],
    "cerbero": [
        {
            "date": "2022-09-29T22:15:02Z",
            "n_issues": 98,
            "n_mrs": 32
        }
    ]
}
