{
    "gstreamer": [
        {
            "date": "2022-02-23T11:15:02Z",
            "n_issues": 604,
            "n_mrs": 322
        }
    ],
    "gst-plugins-base": [
        {
            "date": "2022-02-23T11:15:02Z",
            "n_issues": 647,
            "n_mrs": 91
        }
    ],
    "gst-plugins-good": [
        {
            "date": "2022-02-23T11:15:02Z",
            "n_issues": 649,
            "n_mrs": 89
        }
    ],
    "gst-plugins-bad": [
        {
            "date": "2022-02-23T11:15:02Z",
            "n_issues": 1010,
            "n_mrs": 139
        }
    ],
    "gst-plugins-ugly": [
        {
            "date": "2022-02-23T11:15:02Z",
            "n_issues": 23,
            "n_mrs": 3
        }
    ],
    "gst-libav": [
        {
            "date": "2022-02-23T11:15:02Z",
            "n_issues": 67,
            "n_mrs": 7
        }
    ],
    "gst-rtsp-server": [
        {
            "date": "2022-02-23T11:15:02Z",
            "n_issues": 88,
            "n_mrs": 10
        }
    ],
    "gstreamer-vaapi": [
        {
            "date": "2022-02-23T11:15:02Z",
            "n_issues": 144,
            "n_mrs": 11
        }
    ],
    "gstreamer-sharp": [
        {
            "date": "2022-02-23T11:15:02Z",
            "n_issues": 36,
            "n_mrs": 3
        }
    ],
    "gst-python": [
        {
            "date": "2022-02-23T11:15:02Z",
            "n_issues": 38,
            "n_mrs": 1
        }
    ],
    "gst-omx": [
        {
            "date": "2022-02-23T11:15:02Z",
            "n_issues": 31,
            "n_mrs": 2
        }
    ],
    "gst-editing-services": [
        {
            "date": "2022-02-23T11:15:02Z",
            "n_issues": 74,
            "n_mrs": 9
        }
    ],
    "gst-devtools": [
        {
            "date": "2022-02-23T11:15:02Z",
            "n_issues": 37,
            "n_mrs": 9
        }
    ],
    "gst-integration-testsuites": [
        {
            "date": "2022-02-23T11:15:02Z",
            "n_issues": 1,
            "n_mrs": 7
        }
    ],
    "gst-docs": [
        {
            "date": "2022-02-23T11:15:02Z",
            "n_issues": 53,
            "n_mrs": 14
        }
    ],
    "gst-examples": [
        {
            "date": "2022-02-23T11:15:02Z",
            "n_issues": 27,
            "n_mrs": 4
        }
    ],
    "gst-build": [
        {
            "date": "2022-02-23T11:15:02Z",
            "n_issues": 43,
            "n_mrs": 6
        }
    ],
    "gst-ci": [
        {
            "date": "2022-02-23T11:15:02Z",
            "n_issues": 36,
            "n_mrs": 13
        }
    ],
    "cerbero": [
        {
            "date": "2022-02-23T11:15:02Z",
            "n_issues": 92,
            "n_mrs": 28
        }
    ]
}
