{
    "gstreamer": [
        {
            "date": "2022-09-01T09:15:02Z",
            "n_issues": 775,
            "n_mrs": 394
        }
    ],
    "gst-plugins-base": [
        {
            "date": "2022-09-01T09:15:02Z",
            "n_issues": 644,
            "n_mrs": 87
        }
    ],
    "gst-plugins-good": [
        {
            "date": "2022-09-01T09:15:02Z",
            "n_issues": 650,
            "n_mrs": 82
        }
    ],
    "gst-plugins-bad": [
        {
            "date": "2022-09-01T09:15:02Z",
            "n_issues": 982,
            "n_mrs": 124
        }
    ],
    "gst-plugins-ugly": [
        {
            "date": "2022-09-01T09:15:02Z",
            "n_issues": 23,
            "n_mrs": 3
        }
    ],
    "gst-libav": [
        {
            "date": "2022-09-01T09:15:02Z",
            "n_issues": 70,
            "n_mrs": 6
        }
    ],
    "gst-rtsp-server": [
        {
            "date": "2022-09-01T09:15:02Z",
            "n_issues": 93,
            "n_mrs": 10
        }
    ],
    "gstreamer-vaapi": [
        {
            "date": "2022-09-01T09:15:02Z",
            "n_issues": 147,
            "n_mrs": 10
        }
    ],
    "gstreamer-sharp": [
        {
            "date": "2022-09-01T09:15:02Z",
            "n_issues": 38,
            "n_mrs": 2
        }
    ],
    "gst-python": [
        {
            "date": "2022-09-01T09:15:02Z",
            "n_issues": 42,
            "n_mrs": 1
        }
    ],
    "gst-omx": [
        {
            "date": "2022-09-01T09:15:02Z",
            "n_issues": 31,
            "n_mrs": 2
        }
    ],
    "gst-editing-services": [
        {
            "date": "2022-09-01T09:15:02Z",
            "n_issues": 74,
            "n_mrs": 9
        }
    ],
    "gst-devtools": [
        {
            "date": "2022-09-01T09:15:02Z",
            "n_issues": 36,
            "n_mrs": 9
        }
    ],
    "gst-integration-testsuites": [
        {
            "date": "2022-09-01T09:15:02Z",
            "n_issues": 1,
            "n_mrs": 8
        }
    ],
    "gst-docs": [
        {
            "date": "2022-09-01T09:15:02Z",
            "n_issues": 58,
            "n_mrs": 14
        }
    ],
    "gst-examples": [
        {
            "date": "2022-09-01T09:15:02Z",
            "n_issues": 28,
            "n_mrs": 1
        }
    ],
    "gst-build": [
        {
            "date": "2022-09-01T09:15:02Z",
            "n_issues": 5,
            "n_mrs": 0
        }
    ],
    "gst-ci": [
        {
            "date": "2022-09-01T09:15:02Z",
            "n_issues": 36,
            "n_mrs": 12
        }
    ],
    "cerbero": [
        {
            "date": "2022-09-01T09:15:02Z",
            "n_issues": 102,
            "n_mrs": 36
        }
    ]
}
