{
    "gstreamer": [
        {
            "date": "2022-11-15T05:15:02Z",
            "n_issues": 853,
            "n_mrs": 437
        }
    ],
    "gst-plugins-base": [
        {
            "date": "2022-11-15T05:15:02Z",
            "n_issues": 641,
            "n_mrs": 81
        }
    ],
    "gst-plugins-good": [
        {
            "date": "2022-11-15T05:15:02Z",
            "n_issues": 646,
            "n_mrs": 74
        }
    ],
    "gst-plugins-bad": [
        {
            "date": "2022-11-15T05:15:02Z",
            "n_issues": 970,
            "n_mrs": 106
        }
    ],
    "gst-plugins-ugly": [
        {
            "date": "2022-11-15T05:15:02Z",
            "n_issues": 22,
            "n_mrs": 0
        }
    ],
    "gst-libav": [
        {
            "date": "2022-11-15T05:15:02Z",
            "n_issues": 70,
            "n_mrs": 3
        }
    ],
    "gst-rtsp-server": [
        {
            "date": "2022-11-15T05:15:02Z",
            "n_issues": 97,
            "n_mrs": 8
        }
    ],
    "gstreamer-vaapi": [
        {
            "date": "2022-11-15T05:15:02Z",
            "n_issues": 148,
            "n_mrs": 8
        }
    ],
    "gstreamer-sharp": [
        {
            "date": "2022-11-15T05:15:02Z",
            "n_issues": 38,
            "n_mrs": 1
        }
    ],
    "gst-python": [
        {
            "date": "2022-11-15T05:15:02Z",
            "n_issues": 43,
            "n_mrs": 1
        }
    ],
    "gst-omx": [
        {
            "date": "2022-11-15T05:15:02Z",
            "n_issues": 31,
            "n_mrs": 2
        }
    ],
    "gst-editing-services": [
        {
            "date": "2022-11-15T05:15:02Z",
            "n_issues": 74,
            "n_mrs": 3
        }
    ],
    "gst-devtools": [
        {
            "date": "2022-11-15T05:15:02Z",
            "n_issues": 36,
            "n_mrs": 7
        }
    ],
    "gst-integration-testsuites": [
        {
            "date": "2022-11-15T05:15:02Z",
            "n_issues": 1,
            "n_mrs": 6
        }
    ],
    "gst-docs": [
        {
            "date": "2022-11-15T05:15:02Z",
            "n_issues": 59,
            "n_mrs": 14
        }
    ],
    "gst-examples": [
        {
            "date": "2022-11-15T05:15:02Z",
            "n_issues": 27,
            "n_mrs": 1
        }
    ],
    "gst-build": [
        {
            "date": "2022-11-15T05:15:02Z",
            "n_issues": 5,
            "n_mrs": 0
        }
    ],
    "gst-ci": [
        {
            "date": "2022-11-15T05:15:02Z",
            "n_issues": 36,
            "n_mrs": 7
        }
    ],
    "cerbero": [
        {
            "date": "2022-11-15T05:15:02Z",
            "n_issues": 102,
            "n_mrs": 36
        }
    ]
}
