{
    "gstreamer": [
        {
            "date": "2022-08-05T16:15:02Z",
            "n_issues": 744,
            "n_mrs": 379
        }
    ],
    "gst-plugins-base": [
        {
            "date": "2022-08-05T16:15:02Z",
            "n_issues": 645,
            "n_mrs": 88
        }
    ],
    "gst-plugins-good": [
        {
            "date": "2022-08-05T16:15:02Z",
            "n_issues": 649,
            "n_mrs": 82
        }
    ],
    "gst-plugins-bad": [
        {
            "date": "2022-08-05T16:15:02Z",
            "n_issues": 981,
            "n_mrs": 125
        }
    ],
    "gst-plugins-ugly": [
        {
            "date": "2022-08-05T16:15:02Z",
            "n_issues": 23,
            "n_mrs": 3
        }
    ],
    "gst-libav": [
        {
            "date": "2022-08-05T16:15:02Z",
            "n_issues": 70,
            "n_mrs": 6
        }
    ],
    "gst-rtsp-server": [
        {
            "date": "2022-08-05T16:15:02Z",
            "n_issues": 93,
            "n_mrs": 10
        }
    ],
    "gstreamer-vaapi": [
        {
            "date": "2022-08-05T16:15:02Z",
            "n_issues": 146,
            "n_mrs": 10
        }
    ],
    "gstreamer-sharp": [
        {
            "date": "2022-08-05T16:15:02Z",
            "n_issues": 38,
            "n_mrs": 2
        }
    ],
    "gst-python": [
        {
            "date": "2022-08-05T16:15:02Z",
            "n_issues": 42,
            "n_mrs": 1
        }
    ],
    "gst-omx": [
        {
            "date": "2022-08-05T16:15:02Z",
            "n_issues": 31,
            "n_mrs": 2
        }
    ],
    "gst-editing-services": [
        {
            "date": "2022-08-05T16:15:02Z",
            "n_issues": 74,
            "n_mrs": 9
        }
    ],
    "gst-devtools": [
        {
            "date": "2022-08-05T16:15:02Z",
            "n_issues": 36,
            "n_mrs": 9
        }
    ],
    "gst-integration-testsuites": [
        {
            "date": "2022-08-05T16:15:02Z",
            "n_issues": 1,
            "n_mrs": 7
        }
    ],
    "gst-docs": [
        {
            "date": "2022-08-05T16:15:02Z",
            "n_issues": 58,
            "n_mrs": 14
        }
    ],
    "gst-examples": [
        {
            "date": "2022-08-05T16:15:02Z",
            "n_issues": 28,
            "n_mrs": 1
        }
    ],
    "gst-build": [
        {
            "date": "2022-08-05T16:15:02Z",
            "n_issues": 5,
            "n_mrs": 0
        }
    ],
    "gst-ci": [
        {
            "date": "2022-08-05T16:15:02Z",
            "n_issues": 36,
            "n_mrs": 12
        }
    ],
    "cerbero": [
        {
            "date": "2022-08-05T16:15:02Z",
            "n_issues": 98,
            "n_mrs": 35
        }
    ]
}
