{
    "gstreamer": [
        {
            "date": "2023-05-20T22:15:01Z",
            "n_issues": 1086,
            "n_mrs": 488
        }
    ],
    "gst-plugins-base": [
        {
            "date": "2023-05-20T22:15:01Z",
            "n_issues": 638,
            "n_mrs": 72
        }
    ],
    "gst-plugins-good": [
        {
            "date": "2023-05-20T22:15:01Z",
            "n_issues": 646,
            "n_mrs": 71
        }
    ],
    "gst-plugins-bad": [
        {
            "date": "2023-05-20T22:15:01Z",
            "n_issues": 931,
            "n_mrs": 99
        }
    ],
    "gst-plugins-ugly": [
        {
            "date": "2023-05-20T22:15:01Z",
            "n_issues": 21,
            "n_mrs": 0
        }
    ],
    "gst-libav": [
        {
            "date": "2023-05-20T22:15:01Z",
            "n_issues": 60,
            "n_mrs": 3
        }
    ],
    "gst-rtsp-server": [
        {
            "date": "2023-05-20T22:15:01Z",
            "n_issues": 94,
            "n_mrs": 8
        }
    ],
    "gstreamer-vaapi": [
        {
            "date": "2023-05-20T22:15:01Z",
            "n_issues": 150,
            "n_mrs": 7
        }
    ],
    "gstreamer-sharp": [
        {
            "date": "2023-05-20T22:15:01Z",
            "n_issues": 39,
            "n_mrs": 1
        }
    ],
    "gst-python": [
        {
            "date": "2023-05-20T22:15:01Z",
            "n_issues": 47,
            "n_mrs": 1
        }
    ],
    "gst-omx": [
        {
            "date": "2023-05-20T22:15:01Z",
            "n_issues": 31,
            "n_mrs": 1
        }
    ],
    "gst-editing-services": [
        {
            "date": "2023-05-20T22:15:01Z",
            "n_issues": 74,
            "n_mrs": 3
        }
    ],
    "gst-devtools": [
        {
            "date": "2023-05-20T22:15:01Z",
            "n_issues": 23,
            "n_mrs": 2
        }
    ],
    "gst-integration-testsuites": [
        {
            "date": "2023-05-20T22:15:01Z",
            "n_issues": 1,
            "n_mrs": 6
        }
    ],
    "gst-docs": [
        {
            "date": "2023-05-20T22:15:01Z",
            "n_issues": 62,
            "n_mrs": 14
        }
    ],
    "gst-examples": [
        {
            "date": "2023-05-20T22:15:01Z",
            "n_issues": 19,
            "n_mrs": 1
        }
    ],
    "gst-build": [
        {
            "date": "2023-05-20T22:15:01Z",
            "n_issues": 0,
            "n_mrs": 0
        }
    ],
    "gst-ci": [
        {
            "date": "2023-05-20T22:15:01Z",
            "n_issues": 0,
            "n_mrs": 0
        }
    ],
    "cerbero": [
        {
            "date": "2023-05-20T22:15:01Z",
            "n_issues": 111,
            "n_mrs": 33
        }
    ]
}
