{
    "gstreamer": [
        {
            "date": "2023-10-22T04:15:02Z",
            "n_issues": 1359,
            "n_mrs": 557
        }
    ],
    "gst-plugins-base": [
        {
            "date": "2023-10-22T04:15:02Z",
            "n_issues": 606,
            "n_mrs": 64
        }
    ],
    "gst-plugins-good": [
        {
            "date": "2023-10-22T04:15:02Z",
            "n_issues": 496,
            "n_mrs": 65
        }
    ],
    "gst-plugins-bad": [
        {
            "date": "2023-10-22T04:15:02Z",
            "n_issues": 857,
            "n_mrs": 94
        }
    ],
    "gst-plugins-ugly": [
        {
            "date": "2023-10-22T04:15:02Z",
            "n_issues": 0,
            "n_mrs": 0
        }
    ],
    "gst-libav": [
        {
            "date": "2023-10-22T04:15:02Z",
            "n_issues": 53,
            "n_mrs": 2
        }
    ],
    "gst-rtsp-server": [
        {
            "date": "2023-10-22T04:15:02Z",
            "n_issues": 66,
            "n_mrs": 2
        }
    ],
    "gstreamer-vaapi": [
        {
            "date": "2023-10-22T04:15:02Z",
            "n_issues": 125,
            "n_mrs": 6
        }
    ],
    "gstreamer-sharp": [
        {
            "date": "2023-10-22T04:15:02Z",
            "n_issues": 38,
            "n_mrs": 1
        }
    ],
    "gst-python": [
        {
            "date": "2023-10-22T04:15:02Z",
            "n_issues": 15,
            "n_mrs": 0
        }
    ],
    "gst-omx": [
        {
            "date": "2023-10-22T04:15:02Z",
            "n_issues": 0,
            "n_mrs": 0
        }
    ],
    "gst-editing-services": [
        {
            "date": "2023-10-22T04:15:02Z",
            "n_issues": 74,
            "n_mrs": 2
        }
    ],
    "gst-devtools": [
        {
            "date": "2023-10-22T04:15:02Z",
            "n_issues": 23,
            "n_mrs": 2
        }
    ],
    "gst-integration-testsuites": [
        {
            "date": "2023-10-22T04:15:02Z",
            "n_issues": 1,
            "n_mrs": 6
        }
    ],
    "gst-docs": [
        {
            "date": "2023-10-22T04:15:02Z",
            "n_issues": 50,
            "n_mrs": 9
        }
    ],
    "gst-examples": [
        {
            "date": "2023-10-22T04:15:02Z",
            "n_issues": 19,
            "n_mrs": 1
        }
    ],
    "gst-build": [
        {
            "date": "2023-10-22T04:15:02Z",
            "n_issues": 0,
            "n_mrs": 0
        }
    ],
    "gst-ci": [
        {
            "date": "2023-10-22T04:15:02Z",
            "n_issues": 0,
            "n_mrs": 0
        }
    ],
    "cerbero": [
        {
            "date": "2023-10-22T04:15:02Z",
            "n_issues": 122,
            "n_mrs": 41
        }
    ]
}
