{
    "gstreamer": [
        {
            "date": "2023-09-19T10:15:02Z",
            "n_issues": 1334,
            "n_mrs": 543
        }
    ],
    "gst-plugins-base": [
        {
            "date": "2023-09-19T10:15:02Z",
            "n_issues": 608,
            "n_mrs": 65
        }
    ],
    "gst-plugins-good": [
        {
            "date": "2023-09-19T10:15:02Z",
            "n_issues": 538,
            "n_mrs": 66
        }
    ],
    "gst-plugins-bad": [
        {
            "date": "2023-09-19T10:15:02Z",
            "n_issues": 864,
            "n_mrs": 96
        }
    ],
    "gst-plugins-ugly": [
        {
            "date": "2023-09-19T10:15:02Z",
            "n_issues": 0,
            "n_mrs": 0
        }
    ],
    "gst-libav": [
        {
            "date": "2023-09-19T10:15:02Z",
            "n_issues": 53,
            "n_mrs": 2
        }
    ],
    "gst-rtsp-server": [
        {
            "date": "2023-09-19T10:15:02Z",
            "n_issues": 84,
            "n_mrs": 8
        }
    ],
    "gstreamer-vaapi": [
        {
            "date": "2023-09-19T10:15:02Z",
            "n_issues": 125,
            "n_mrs": 6
        }
    ],
    "gstreamer-sharp": [
        {
            "date": "2023-09-19T10:15:02Z",
            "n_issues": 39,
            "n_mrs": 1
        }
    ],
    "gst-python": [
        {
            "date": "2023-09-19T10:15:02Z",
            "n_issues": 15,
            "n_mrs": 0
        }
    ],
    "gst-omx": [
        {
            "date": "2023-09-19T10:15:02Z",
            "n_issues": 0,
            "n_mrs": 0
        }
    ],
    "gst-editing-services": [
        {
            "date": "2023-09-19T10:15:02Z",
            "n_issues": 74,
            "n_mrs": 2
        }
    ],
    "gst-devtools": [
        {
            "date": "2023-09-19T10:15:02Z",
            "n_issues": 23,
            "n_mrs": 2
        }
    ],
    "gst-integration-testsuites": [
        {
            "date": "2023-09-19T10:15:02Z",
            "n_issues": 1,
            "n_mrs": 6
        }
    ],
    "gst-docs": [
        {
            "date": "2023-09-19T10:15:02Z",
            "n_issues": 50,
            "n_mrs": 9
        }
    ],
    "gst-examples": [
        {
            "date": "2023-09-19T10:15:02Z",
            "n_issues": 19,
            "n_mrs": 1
        }
    ],
    "gst-build": [
        {
            "date": "2023-09-19T10:15:02Z",
            "n_issues": 0,
            "n_mrs": 0
        }
    ],
    "gst-ci": [
        {
            "date": "2023-09-19T10:15:02Z",
            "n_issues": 0,
            "n_mrs": 0
        }
    ],
    "cerbero": [
        {
            "date": "2023-09-19T10:15:02Z",
            "n_issues": 119,
            "n_mrs": 38
        }
    ]
}
