{
    "gstreamer": [
        {
            "date": "2023-06-11T10:15:02Z",
            "n_issues": 1133,
            "n_mrs": 509
        }
    ],
    "gst-plugins-base": [
        {
            "date": "2023-06-11T10:15:02Z",
            "n_issues": 630,
            "n_mrs": 65
        }
    ],
    "gst-plugins-good": [
        {
            "date": "2023-06-11T10:15:02Z",
            "n_issues": 621,
            "n_mrs": 70
        }
    ],
    "gst-plugins-bad": [
        {
            "date": "2023-06-11T10:15:02Z",
            "n_issues": 891,
            "n_mrs": 98
        }
    ],
    "gst-plugins-ugly": [
        {
            "date": "2023-06-11T10:15:02Z",
            "n_issues": 16,
            "n_mrs": 0
        }
    ],
    "gst-libav": [
        {
            "date": "2023-06-11T10:15:02Z",
            "n_issues": 54,
            "n_mrs": 2
        }
    ],
    "gst-rtsp-server": [
        {
            "date": "2023-06-11T10:15:02Z",
            "n_issues": 94,
            "n_mrs": 8
        }
    ],
    "gstreamer-vaapi": [
        {
            "date": "2023-06-11T10:15:02Z",
            "n_issues": 127,
            "n_mrs": 7
        }
    ],
    "gstreamer-sharp": [
        {
            "date": "2023-06-11T10:15:02Z",
            "n_issues": 39,
            "n_mrs": 1
        }
    ],
    "gst-python": [
        {
            "date": "2023-06-11T10:15:02Z",
            "n_issues": 41,
            "n_mrs": 0
        }
    ],
    "gst-omx": [
        {
            "date": "2023-06-11T10:15:02Z",
            "n_issues": 29,
            "n_mrs": 1
        }
    ],
    "gst-editing-services": [
        {
            "date": "2023-06-11T10:15:02Z",
            "n_issues": 74,
            "n_mrs": 2
        }
    ],
    "gst-devtools": [
        {
            "date": "2023-06-11T10:15:02Z",
            "n_issues": 23,
            "n_mrs": 2
        }
    ],
    "gst-integration-testsuites": [
        {
            "date": "2023-06-11T10:15:02Z",
            "n_issues": 1,
            "n_mrs": 6
        }
    ],
    "gst-docs": [
        {
            "date": "2023-06-11T10:15:02Z",
            "n_issues": 54,
            "n_mrs": 9
        }
    ],
    "gst-examples": [
        {
            "date": "2023-06-11T10:15:02Z",
            "n_issues": 19,
            "n_mrs": 1
        }
    ],
    "gst-build": [
        {
            "date": "2023-06-11T10:15:02Z",
            "n_issues": 0,
            "n_mrs": 0
        }
    ],
    "gst-ci": [
        {
            "date": "2023-06-11T10:15:02Z",
            "n_issues": 0,
            "n_mrs": 0
        }
    ],
    "cerbero": [
        {
            "date": "2023-06-11T10:15:02Z",
            "n_issues": 106,
            "n_mrs": 28
        }
    ]
}
