{
    "gstreamer": [
        {
            "date": "2023-06-27T22:15:02Z",
            "n_issues": 1171,
            "n_mrs": 497
        }
    ],
    "gst-plugins-base": [
        {
            "date": "2023-06-27T22:15:02Z",
            "n_issues": 623,
            "n_mrs": 65
        }
    ],
    "gst-plugins-good": [
        {
            "date": "2023-06-27T22:15:02Z",
            "n_issues": 618,
            "n_mrs": 70
        }
    ],
    "gst-plugins-bad": [
        {
            "date": "2023-06-27T22:15:02Z",
            "n_issues": 882,
            "n_mrs": 96
        }
    ],
    "gst-plugins-ugly": [
        {
            "date": "2023-06-27T22:15:02Z",
            "n_issues": 1,
            "n_mrs": 0
        }
    ],
    "gst-libav": [
        {
            "date": "2023-06-27T22:15:02Z",
            "n_issues": 54,
            "n_mrs": 2
        }
    ],
    "gst-rtsp-server": [
        {
            "date": "2023-06-27T22:15:02Z",
            "n_issues": 82,
            "n_mrs": 8
        }
    ],
    "gstreamer-vaapi": [
        {
            "date": "2023-06-27T22:15:02Z",
            "n_issues": 124,
            "n_mrs": 6
        }
    ],
    "gstreamer-sharp": [
        {
            "date": "2023-06-27T22:15:02Z",
            "n_issues": 39,
            "n_mrs": 1
        }
    ],
    "gst-python": [
        {
            "date": "2023-06-27T22:15:02Z",
            "n_issues": 42,
            "n_mrs": 0
        }
    ],
    "gst-omx": [
        {
            "date": "2023-06-27T22:15:02Z",
            "n_issues": 29,
            "n_mrs": 1
        }
    ],
    "gst-editing-services": [
        {
            "date": "2023-06-27T22:15:02Z",
            "n_issues": 74,
            "n_mrs": 2
        }
    ],
    "gst-devtools": [
        {
            "date": "2023-06-27T22:15:02Z",
            "n_issues": 23,
            "n_mrs": 2
        }
    ],
    "gst-integration-testsuites": [
        {
            "date": "2023-06-27T22:15:02Z",
            "n_issues": 1,
            "n_mrs": 6
        }
    ],
    "gst-docs": [
        {
            "date": "2023-06-27T22:15:02Z",
            "n_issues": 53,
            "n_mrs": 9
        }
    ],
    "gst-examples": [
        {
            "date": "2023-06-27T22:15:02Z",
            "n_issues": 19,
            "n_mrs": 1
        }
    ],
    "gst-build": [
        {
            "date": "2023-06-27T22:15:02Z",
            "n_issues": 0,
            "n_mrs": 0
        }
    ],
    "gst-ci": [
        {
            "date": "2023-06-27T22:15:02Z",
            "n_issues": 0,
            "n_mrs": 0
        }
    ],
    "cerbero": [
        {
            "date": "2023-06-27T22:15:02Z",
            "n_issues": 108,
            "n_mrs": 30
        }
    ]
}
