{
    "gstreamer": [
        {
            "date": "2023-01-28T11:15:05Z",
            "n_issues": 922,
            "n_mrs": 434
        }
    ],
    "gst-plugins-base": [
        {
            "date": "2023-01-28T11:15:05Z",
            "n_issues": 642,
            "n_mrs": 81
        }
    ],
    "gst-plugins-good": [
        {
            "date": "2023-01-28T11:15:05Z",
            "n_issues": 648,
            "n_mrs": 72
        }
    ],
    "gst-plugins-bad": [
        {
            "date": "2023-01-28T11:15:05Z",
            "n_issues": 972,
            "n_mrs": 105
        }
    ],
    "gst-plugins-ugly": [
        {
            "date": "2023-01-28T11:15:05Z",
            "n_issues": 22,
            "n_mrs": 0
        }
    ],
    "gst-libav": [
        {
            "date": "2023-01-28T11:15:05Z",
            "n_issues": 69,
            "n_mrs": 3
        }
    ],
    "gst-rtsp-server": [
        {
            "date": "2023-01-28T11:15:05Z",
            "n_issues": 95,
            "n_mrs": 8
        }
    ],
    "gstreamer-vaapi": [
        {
            "date": "2023-01-28T11:15:05Z",
            "n_issues": 148,
            "n_mrs": 8
        }
    ],
    "gstreamer-sharp": [
        {
            "date": "2023-01-28T11:15:05Z",
            "n_issues": 38,
            "n_mrs": 1
        }
    ],
    "gst-python": [
        {
            "date": "2023-01-28T11:15:05Z",
            "n_issues": 43,
            "n_mrs": 1
        }
    ],
    "gst-omx": [
        {
            "date": "2023-01-28T11:15:05Z",
            "n_issues": 31,
            "n_mrs": 2
        }
    ],
    "gst-editing-services": [
        {
            "date": "2023-01-28T11:15:05Z",
            "n_issues": 74,
            "n_mrs": 3
        }
    ],
    "gst-devtools": [
        {
            "date": "2023-01-28T11:15:05Z",
            "n_issues": 35,
            "n_mrs": 7
        }
    ],
    "gst-integration-testsuites": [
        {
            "date": "2023-01-28T11:15:05Z",
            "n_issues": 1,
            "n_mrs": 6
        }
    ],
    "gst-docs": [
        {
            "date": "2023-01-28T11:15:05Z",
            "n_issues": 62,
            "n_mrs": 14
        }
    ],
    "gst-examples": [
        {
            "date": "2023-01-28T11:15:05Z",
            "n_issues": 27,
            "n_mrs": 1
        }
    ],
    "gst-build": [
        {
            "date": "2023-01-28T11:15:05Z",
            "n_issues": 6,
            "n_mrs": 0
        }
    ],
    "gst-ci": [
        {
            "date": "2023-01-28T11:15:05Z",
            "n_issues": 36,
            "n_mrs": 7
        }
    ],
    "cerbero": [
        {
            "date": "2023-01-28T11:15:05Z",
            "n_issues": 101,
            "n_mrs": 32
        }
    ]
}
