{
    "gstreamer": [
        {
            "date": "2023-04-11T10:15:02Z",
            "n_issues": 1029,
            "n_mrs": 471
        }
    ],
    "gst-plugins-base": [
        {
            "date": "2023-04-11T10:15:02Z",
            "n_issues": 642,
            "n_mrs": 79
        }
    ],
    "gst-plugins-good": [
        {
            "date": "2023-04-11T10:15:02Z",
            "n_issues": 648,
            "n_mrs": 71
        }
    ],
    "gst-plugins-bad": [
        {
            "date": "2023-04-11T10:15:02Z",
            "n_issues": 973,
            "n_mrs": 101
        }
    ],
    "gst-plugins-ugly": [
        {
            "date": "2023-04-11T10:15:02Z",
            "n_issues": 22,
            "n_mrs": 0
        }
    ],
    "gst-libav": [
        {
            "date": "2023-04-11T10:15:02Z",
            "n_issues": 64,
            "n_mrs": 3
        }
    ],
    "gst-rtsp-server": [
        {
            "date": "2023-04-11T10:15:02Z",
            "n_issues": 94,
            "n_mrs": 8
        }
    ],
    "gstreamer-vaapi": [
        {
            "date": "2023-04-11T10:15:02Z",
            "n_issues": 149,
            "n_mrs": 8
        }
    ],
    "gstreamer-sharp": [
        {
            "date": "2023-04-11T10:15:02Z",
            "n_issues": 39,
            "n_mrs": 1
        }
    ],
    "gst-python": [
        {
            "date": "2023-04-11T10:15:02Z",
            "n_issues": 46,
            "n_mrs": 1
        }
    ],
    "gst-omx": [
        {
            "date": "2023-04-11T10:15:02Z",
            "n_issues": 31,
            "n_mrs": 1
        }
    ],
    "gst-editing-services": [
        {
            "date": "2023-04-11T10:15:02Z",
            "n_issues": 74,
            "n_mrs": 3
        }
    ],
    "gst-devtools": [
        {
            "date": "2023-04-11T10:15:02Z",
            "n_issues": 32,
            "n_mrs": 2
        }
    ],
    "gst-integration-testsuites": [
        {
            "date": "2023-04-11T10:15:02Z",
            "n_issues": 1,
            "n_mrs": 6
        }
    ],
    "gst-docs": [
        {
            "date": "2023-04-11T10:15:02Z",
            "n_issues": 62,
            "n_mrs": 14
        }
    ],
    "gst-examples": [
        {
            "date": "2023-04-11T10:15:02Z",
            "n_issues": 27,
            "n_mrs": 1
        }
    ],
    "gst-build": [
        {
            "date": "2023-04-11T10:15:02Z",
            "n_issues": 0,
            "n_mrs": 0
        }
    ],
    "gst-ci": [
        {
            "date": "2023-04-11T10:15:02Z",
            "n_issues": 0,
            "n_mrs": 0
        }
    ],
    "cerbero": [
        {
            "date": "2023-04-11T10:15:02Z",
            "n_issues": 108,
            "n_mrs": 34
        }
    ]
}
