{
    "gstreamer": [
        {
            "date": "2023-06-02T22:15:02Z",
            "n_issues": 1112,
            "n_mrs": 495
        }
    ],
    "gst-plugins-base": [
        {
            "date": "2023-06-02T22:15:02Z",
            "n_issues": 635,
            "n_mrs": 67
        }
    ],
    "gst-plugins-good": [
        {
            "date": "2023-06-02T22:15:02Z",
            "n_issues": 627,
            "n_mrs": 71
        }
    ],
    "gst-plugins-bad": [
        {
            "date": "2023-06-02T22:15:02Z",
            "n_issues": 910,
            "n_mrs": 98
        }
    ],
    "gst-plugins-ugly": [
        {
            "date": "2023-06-02T22:15:02Z",
            "n_issues": 19,
            "n_mrs": 0
        }
    ],
    "gst-libav": [
        {
            "date": "2023-06-02T22:15:02Z",
            "n_issues": 54,
            "n_mrs": 2
        }
    ],
    "gst-rtsp-server": [
        {
            "date": "2023-06-02T22:15:02Z",
            "n_issues": 94,
            "n_mrs": 8
        }
    ],
    "gstreamer-vaapi": [
        {
            "date": "2023-06-02T22:15:02Z",
            "n_issues": 136,
            "n_mrs": 7
        }
    ],
    "gstreamer-sharp": [
        {
            "date": "2023-06-02T22:15:02Z",
            "n_issues": 39,
            "n_mrs": 1
        }
    ],
    "gst-python": [
        {
            "date": "2023-06-02T22:15:02Z",
            "n_issues": 41,
            "n_mrs": 0
        }
    ],
    "gst-omx": [
        {
            "date": "2023-06-02T22:15:02Z",
            "n_issues": 29,
            "n_mrs": 1
        }
    ],
    "gst-editing-services": [
        {
            "date": "2023-06-02T22:15:02Z",
            "n_issues": 74,
            "n_mrs": 3
        }
    ],
    "gst-devtools": [
        {
            "date": "2023-06-02T22:15:02Z",
            "n_issues": 23,
            "n_mrs": 2
        }
    ],
    "gst-integration-testsuites": [
        {
            "date": "2023-06-02T22:15:02Z",
            "n_issues": 1,
            "n_mrs": 6
        }
    ],
    "gst-docs": [
        {
            "date": "2023-06-02T22:15:02Z",
            "n_issues": 54,
            "n_mrs": 9
        }
    ],
    "gst-examples": [
        {
            "date": "2023-06-02T22:15:02Z",
            "n_issues": 19,
            "n_mrs": 1
        }
    ],
    "gst-build": [
        {
            "date": "2023-06-02T22:15:02Z",
            "n_issues": 0,
            "n_mrs": 0
        }
    ],
    "gst-ci": [
        {
            "date": "2023-06-02T22:15:02Z",
            "n_issues": 0,
            "n_mrs": 0
        }
    ],
    "cerbero": [
        {
            "date": "2023-06-02T22:15:02Z",
            "n_issues": 112,
            "n_mrs": 36
        }
    ]
}
