{
    "gstreamer": [
        {
            "date": "2023-03-03T23:15:02Z",
            "n_issues": 973,
            "n_mrs": 432
        }
    ],
    "gst-plugins-base": [
        {
            "date": "2023-03-03T23:15:02Z",
            "n_issues": 641,
            "n_mrs": 79
        }
    ],
    "gst-plugins-good": [
        {
            "date": "2023-03-03T23:15:02Z",
            "n_issues": 649,
            "n_mrs": 71
        }
    ],
    "gst-plugins-bad": [
        {
            "date": "2023-03-03T23:15:02Z",
            "n_issues": 970,
            "n_mrs": 102
        }
    ],
    "gst-plugins-ugly": [
        {
            "date": "2023-03-03T23:15:02Z",
            "n_issues": 22,
            "n_mrs": 0
        }
    ],
    "gst-libav": [
        {
            "date": "2023-03-03T23:15:02Z",
            "n_issues": 70,
            "n_mrs": 3
        }
    ],
    "gst-rtsp-server": [
        {
            "date": "2023-03-03T23:15:02Z",
            "n_issues": 95,
            "n_mrs": 8
        }
    ],
    "gstreamer-vaapi": [
        {
            "date": "2023-03-03T23:15:02Z",
            "n_issues": 149,
            "n_mrs": 8
        }
    ],
    "gstreamer-sharp": [
        {
            "date": "2023-03-03T23:15:02Z",
            "n_issues": 39,
            "n_mrs": 1
        }
    ],
    "gst-python": [
        {
            "date": "2023-03-03T23:15:02Z",
            "n_issues": 44,
            "n_mrs": 1
        }
    ],
    "gst-omx": [
        {
            "date": "2023-03-03T23:15:02Z",
            "n_issues": 31,
            "n_mrs": 1
        }
    ],
    "gst-editing-services": [
        {
            "date": "2023-03-03T23:15:02Z",
            "n_issues": 74,
            "n_mrs": 3
        }
    ],
    "gst-devtools": [
        {
            "date": "2023-03-03T23:15:02Z",
            "n_issues": 33,
            "n_mrs": 2
        }
    ],
    "gst-integration-testsuites": [
        {
            "date": "2023-03-03T23:15:02Z",
            "n_issues": 1,
            "n_mrs": 6
        }
    ],
    "gst-docs": [
        {
            "date": "2023-03-03T23:15:02Z",
            "n_issues": 62,
            "n_mrs": 14
        }
    ],
    "gst-examples": [
        {
            "date": "2023-03-03T23:15:02Z",
            "n_issues": 27,
            "n_mrs": 1
        }
    ],
    "gst-build": [
        {
            "date": "2023-03-03T23:15:02Z",
            "n_issues": 0,
            "n_mrs": 0
        }
    ],
    "gst-ci": [
        {
            "date": "2023-03-03T23:15:02Z",
            "n_issues": 7,
            "n_mrs": 0
        }
    ],
    "cerbero": [
        {
            "date": "2023-03-03T23:15:02Z",
            "n_issues": 107,
            "n_mrs": 37
        }
    ]
}
