{
    "gstreamer": [
        {
            "date": "2024-12-11T23:15:02Z",
            "n_issues": 1781,
            "n_mrs": 735
        }
    ],
    "gst-plugins-base": [
        {
            "date": "2024-12-11T23:15:02Z",
            "n_issues": 596,
            "n_mrs": 54
        }
    ],
    "gst-plugins-good": [
        {
            "date": "2024-12-11T23:15:02Z",
            "n_issues": 450,
            "n_mrs": 59
        }
    ],
    "gst-plugins-bad": [
        {
            "date": "2024-12-11T23:15:02Z",
            "n_issues": 815,
            "n_mrs": 87
        }
    ],
    "gst-plugins-ugly": [
        {
            "date": "2024-12-11T23:15:02Z",
            "n_issues": 0,
            "n_mrs": 0
        }
    ],
    "gst-libav": [
        {
            "date": "2024-12-11T23:15:02Z",
            "n_issues": 0,
            "n_mrs": 0
        }
    ],
    "gst-rtsp-server": [
        {
            "date": "2024-12-11T23:15:02Z",
            "n_issues": 62,
            "n_mrs": 0
        }
    ],
    "gstreamer-vaapi": [
        {
            "date": "2024-12-11T23:15:02Z",
            "n_issues": 114,
            "n_mrs": 2
        }
    ],
    "gstreamer-sharp": [
        {
            "date": "2024-12-11T23:15:02Z",
            "n_issues": 39,
            "n_mrs": 1
        }
    ],
    "gst-python": [
        {
            "date": "2024-12-11T23:15:02Z",
            "n_issues": 0,
            "n_mrs": 0
        }
    ],
    "gst-omx": [
        {
            "date": "2024-12-11T23:15:02Z",
            "n_issues": 0,
            "n_mrs": 0
        }
    ],
    "gst-editing-services": [
        {
            "date": "2024-12-11T23:15:02Z",
            "n_issues": 42,
            "n_mrs": 0
        }
    ],
    "gst-devtools": [
        {
            "date": "2024-12-11T23:15:02Z",
            "n_issues": 0,
            "n_mrs": 0
        }
    ],
    "gst-integration-testsuites": [
        {
            "date": "2024-12-11T23:15:02Z",
            "n_issues": 1,
            "n_mrs": 6
        }
    ],
    "gst-docs": [
        {
            "date": "2024-12-11T23:15:02Z",
            "n_issues": 0,
            "n_mrs": 0
        }
    ],
    "gst-examples": [
        {
            "date": "2024-12-11T23:15:02Z",
            "n_issues": 0,
            "n_mrs": 0
        }
    ],
    "gst-build": [
        {
            "date": "2024-12-11T23:15:02Z",
            "n_issues": 0,
            "n_mrs": 0
        }
    ],
    "gst-ci": [
        {
            "date": "2024-12-11T23:15:02Z",
            "n_issues": 0,
            "n_mrs": 0
        }
    ],
    "cerbero": [
        {
            "date": "2024-12-11T23:15:02Z",
            "n_issues": 121,
            "n_mrs": 36
        }
    ]
}
