{
    "gstreamer": [
        {
            "date": "2024-11-09T17:15:02Z",
            "n_issues": 1757,
            "n_mrs": 719
        }
    ],
    "gst-plugins-base": [
        {
            "date": "2024-11-09T17:15:02Z",
            "n_issues": 598,
            "n_mrs": 54
        }
    ],
    "gst-plugins-good": [
        {
            "date": "2024-11-09T17:15:02Z",
            "n_issues": 460,
            "n_mrs": 59
        }
    ],
    "gst-plugins-bad": [
        {
            "date": "2024-11-09T17:15:02Z",
            "n_issues": 826,
            "n_mrs": 87
        }
    ],
    "gst-plugins-ugly": [
        {
            "date": "2024-11-09T17:15:02Z",
            "n_issues": 0,
            "n_mrs": 0
        }
    ],
    "gst-libav": [
        {
            "date": "2024-11-09T17:15:02Z",
            "n_issues": 0,
            "n_mrs": 0
        }
    ],
    "gst-rtsp-server": [
        {
            "date": "2024-11-09T17:15:02Z",
            "n_issues": 69,
            "n_mrs": 2
        }
    ],
    "gstreamer-vaapi": [
        {
            "date": "2024-11-09T17:15:02Z",
            "n_issues": 122,
            "n_mrs": 5
        }
    ],
    "gstreamer-sharp": [
        {
            "date": "2024-11-09T17:15:02Z",
            "n_issues": 39,
            "n_mrs": 1
        }
    ],
    "gst-python": [
        {
            "date": "2024-11-09T17:15:02Z",
            "n_issues": 0,
            "n_mrs": 0
        }
    ],
    "gst-omx": [
        {
            "date": "2024-11-09T17:15:02Z",
            "n_issues": 0,
            "n_mrs": 0
        }
    ],
    "gst-editing-services": [
        {
            "date": "2024-11-09T17:15:02Z",
            "n_issues": 74,
            "n_mrs": 1
        }
    ],
    "gst-devtools": [
        {
            "date": "2024-11-09T17:15:02Z",
            "n_issues": 18,
            "n_mrs": 1
        }
    ],
    "gst-integration-testsuites": [
        {
            "date": "2024-11-09T17:15:02Z",
            "n_issues": 1,
            "n_mrs": 7
        }
    ],
    "gst-docs": [
        {
            "date": "2024-11-09T17:15:02Z",
            "n_issues": 37,
            "n_mrs": 9
        }
    ],
    "gst-examples": [
        {
            "date": "2024-11-09T17:15:02Z",
            "n_issues": 18,
            "n_mrs": 1
        }
    ],
    "gst-build": [
        {
            "date": "2024-11-09T17:15:02Z",
            "n_issues": 0,
            "n_mrs": 0
        }
    ],
    "gst-ci": [
        {
            "date": "2024-11-09T17:15:02Z",
            "n_issues": 0,
            "n_mrs": 0
        }
    ],
    "cerbero": [
        {
            "date": "2024-11-09T17:15:02Z",
            "n_issues": 125,
            "n_mrs": 29
        }
    ]
}
