{
    "gstreamer": [
        {
            "date": "2024-07-24T22:15:01Z",
            "n_issues": 1609,
            "n_mrs": 687
        }
    ],
    "gst-plugins-base": [
        {
            "date": "2024-07-24T22:15:01Z",
            "n_issues": 605,
            "n_mrs": 60
        }
    ],
    "gst-plugins-good": [
        {
            "date": "2024-07-24T22:15:01Z",
            "n_issues": 461,
            "n_mrs": 61
        }
    ],
    "gst-plugins-bad": [
        {
            "date": "2024-07-24T22:15:01Z",
            "n_issues": 844,
            "n_mrs": 88
        }
    ],
    "gst-plugins-ugly": [
        {
            "date": "2024-07-24T22:15:01Z",
            "n_issues": 0,
            "n_mrs": 0
        }
    ],
    "gst-libav": [
        {
            "date": "2024-07-24T22:15:01Z",
            "n_issues": 0,
            "n_mrs": 0
        }
    ],
    "gst-rtsp-server": [
        {
            "date": "2024-07-24T22:15:01Z",
            "n_issues": 68,
            "n_mrs": 2
        }
    ],
    "gstreamer-vaapi": [
        {
            "date": "2024-07-24T22:15:01Z",
            "n_issues": 124,
            "n_mrs": 5
        }
    ],
    "gstreamer-sharp": [
        {
            "date": "2024-07-24T22:15:01Z",
            "n_issues": 39,
            "n_mrs": 1
        }
    ],
    "gst-python": [
        {
            "date": "2024-07-24T22:15:01Z",
            "n_issues": 0,
            "n_mrs": 0
        }
    ],
    "gst-omx": [
        {
            "date": "2024-07-24T22:15:01Z",
            "n_issues": 0,
            "n_mrs": 0
        }
    ],
    "gst-editing-services": [
        {
            "date": "2024-07-24T22:15:01Z",
            "n_issues": 74,
            "n_mrs": 1
        }
    ],
    "gst-devtools": [
        {
            "date": "2024-07-24T22:15:01Z",
            "n_issues": 21,
            "n_mrs": 1
        }
    ],
    "gst-integration-testsuites": [
        {
            "date": "2024-07-24T22:15:01Z",
            "n_issues": 1,
            "n_mrs": 7
        }
    ],
    "gst-docs": [
        {
            "date": "2024-07-24T22:15:01Z",
            "n_issues": 51,
            "n_mrs": 9
        }
    ],
    "gst-examples": [
        {
            "date": "2024-07-24T22:15:01Z",
            "n_issues": 18,
            "n_mrs": 1
        }
    ],
    "gst-build": [
        {
            "date": "2024-07-24T22:15:01Z",
            "n_issues": 0,
            "n_mrs": 0
        }
    ],
    "gst-ci": [
        {
            "date": "2024-07-24T22:15:01Z",
            "n_issues": 0,
            "n_mrs": 0
        }
    ],
    "cerbero": [
        {
            "date": "2024-07-24T22:15:01Z",
            "n_issues": 124,
            "n_mrs": 45
        }
    ]
}
