{
    "gstreamer": [
        {
            "date": "2025-01-25T17:15:03Z",
            "n_issues": 1828,
            "n_mrs": 766
        }
    ],
    "gst-plugins-base": [
        {
            "date": "2025-01-25T17:15:03Z",
            "n_issues": 582,
            "n_mrs": 45
        }
    ],
    "gst-plugins-good": [
        {
            "date": "2025-01-25T17:15:03Z",
            "n_issues": 438,
            "n_mrs": 48
        }
    ],
    "gst-plugins-bad": [
        {
            "date": "2025-01-25T17:15:03Z",
            "n_issues": 810,
            "n_mrs": 73
        }
    ],
    "gst-plugins-ugly": [
        {
            "date": "2025-01-25T17:15:03Z",
            "n_issues": 0,
            "n_mrs": 0
        }
    ],
    "gst-libav": [
        {
            "date": "2025-01-25T17:15:03Z",
            "n_issues": 0,
            "n_mrs": 0
        }
    ],
    "gst-rtsp-server": [
        {
            "date": "2025-01-25T17:15:03Z",
            "n_issues": 59,
            "n_mrs": 0
        }
    ],
    "gstreamer-vaapi": [
        {
            "date": "2025-01-25T17:15:03Z",
            "n_issues": 109,
            "n_mrs": 1
        }
    ],
    "gstreamer-sharp": [
        {
            "date": "2025-01-25T17:15:03Z",
            "n_issues": 37,
            "n_mrs": 1
        }
    ],
    "gst-python": [
        {
            "date": "2025-01-25T17:15:03Z",
            "n_issues": 0,
            "n_mrs": 0
        }
    ],
    "gst-omx": [
        {
            "date": "2025-01-25T17:15:03Z",
            "n_issues": 0,
            "n_mrs": 0
        }
    ],
    "gst-editing-services": [
        {
            "date": "2025-01-25T17:15:03Z",
            "n_issues": 32,
            "n_mrs": 0
        }
    ],
    "gst-devtools": [
        {
            "date": "2025-01-25T17:15:03Z",
            "n_issues": 0,
            "n_mrs": 0
        }
    ],
    "gst-integration-testsuites": [
        {
            "date": "2025-01-25T17:15:03Z",
            "n_issues": 1,
            "n_mrs": 6
        }
    ],
    "gst-docs": [
        {
            "date": "2025-01-25T17:15:03Z",
            "n_issues": 0,
            "n_mrs": 0
        }
    ],
    "gst-examples": [
        {
            "date": "2025-01-25T17:15:03Z",
            "n_issues": 0,
            "n_mrs": 0
        }
    ],
    "gst-build": [
        {
            "date": "2025-01-25T17:15:03Z",
            "n_issues": 0,
            "n_mrs": 0
        }
    ],
    "gst-ci": [
        {
            "date": "2025-01-25T17:15:03Z",
            "n_issues": 0,
            "n_mrs": 0
        }
    ],
    "cerbero": [
        {
            "date": "2025-01-25T17:15:03Z",
            "n_issues": 123,
            "n_mrs": 35
        }
    ]
}
