{
    "gstreamer": [
        {
            "date": "2025-01-03T23:15:02Z",
            "n_issues": 1803,
            "n_mrs": 759
        }
    ],
    "gst-plugins-base": [
        {
            "date": "2025-01-03T23:15:02Z",
            "n_issues": 590,
            "n_mrs": 53
        }
    ],
    "gst-plugins-good": [
        {
            "date": "2025-01-03T23:15:02Z",
            "n_issues": 441,
            "n_mrs": 52
        }
    ],
    "gst-plugins-bad": [
        {
            "date": "2025-01-03T23:15:02Z",
            "n_issues": 810,
            "n_mrs": 79
        }
    ],
    "gst-plugins-ugly": [
        {
            "date": "2025-01-03T23:15:02Z",
            "n_issues": 0,
            "n_mrs": 0
        }
    ],
    "gst-libav": [
        {
            "date": "2025-01-03T23:15:02Z",
            "n_issues": 0,
            "n_mrs": 0
        }
    ],
    "gst-rtsp-server": [
        {
            "date": "2025-01-03T23:15:02Z",
            "n_issues": 60,
            "n_mrs": 0
        }
    ],
    "gstreamer-vaapi": [
        {
            "date": "2025-01-03T23:15:02Z",
            "n_issues": 111,
            "n_mrs": 1
        }
    ],
    "gstreamer-sharp": [
        {
            "date": "2025-01-03T23:15:02Z",
            "n_issues": 38,
            "n_mrs": 1
        }
    ],
    "gst-python": [
        {
            "date": "2025-01-03T23:15:02Z",
            "n_issues": 0,
            "n_mrs": 0
        }
    ],
    "gst-omx": [
        {
            "date": "2025-01-03T23:15:02Z",
            "n_issues": 0,
            "n_mrs": 0
        }
    ],
    "gst-editing-services": [
        {
            "date": "2025-01-03T23:15:02Z",
            "n_issues": 37,
            "n_mrs": 0
        }
    ],
    "gst-devtools": [
        {
            "date": "2025-01-03T23:15:02Z",
            "n_issues": 0,
            "n_mrs": 0
        }
    ],
    "gst-integration-testsuites": [
        {
            "date": "2025-01-03T23:15:02Z",
            "n_issues": 1,
            "n_mrs": 6
        }
    ],
    "gst-docs": [
        {
            "date": "2025-01-03T23:15:02Z",
            "n_issues": 0,
            "n_mrs": 0
        }
    ],
    "gst-examples": [
        {
            "date": "2025-01-03T23:15:02Z",
            "n_issues": 0,
            "n_mrs": 0
        }
    ],
    "gst-build": [
        {
            "date": "2025-01-03T23:15:02Z",
            "n_issues": 0,
            "n_mrs": 0
        }
    ],
    "gst-ci": [
        {
            "date": "2025-01-03T23:15:02Z",
            "n_issues": 0,
            "n_mrs": 0
        }
    ],
    "cerbero": [
        {
            "date": "2025-01-03T23:15:02Z",
            "n_issues": 122,
            "n_mrs": 32
        }
    ]
}
