{
    "gstreamer": [
        {
            "date": "2025-02-07T17:15:08Z",
            "n_issues": 1841,
            "n_mrs": 766
        }
    ],
    "gst-plugins-base": [
        {
            "date": "2025-02-07T17:15:08Z",
            "n_issues": 576,
            "n_mrs": 42
        }
    ],
    "gst-plugins-good": [
        {
            "date": "2025-02-07T17:15:08Z",
            "n_issues": 437,
            "n_mrs": 48
        }
    ],
    "gst-plugins-bad": [
        {
            "date": "2025-02-07T17:15:08Z",
            "n_issues": 808,
            "n_mrs": 73
        }
    ],
    "gst-plugins-ugly": [
        {
            "date": "2025-02-07T17:15:08Z",
            "n_issues": 0,
            "n_mrs": 0
        }
    ],
    "gst-libav": [
        {
            "date": "2025-02-07T17:15:08Z",
            "n_issues": 0,
            "n_mrs": 0
        }
    ],
    "gst-rtsp-server": [
        {
            "date": "2025-02-07T17:15:08Z",
            "n_issues": 58,
            "n_mrs": 0
        }
    ],
    "gstreamer-vaapi": [
        {
            "date": "2025-02-07T17:15:08Z",
            "n_issues": 109,
            "n_mrs": 1
        }
    ],
    "gstreamer-sharp": [
        {
            "date": "2025-02-07T17:15:08Z",
            "n_issues": 35,
            "n_mrs": 1
        }
    ],
    "gst-python": [
        {
            "date": "2025-02-07T17:15:08Z",
            "n_issues": 0,
            "n_mrs": 0
        }
    ],
    "gst-omx": [
        {
            "date": "2025-02-07T17:15:08Z",
            "n_issues": 0,
            "n_mrs": 0
        }
    ],
    "gst-editing-services": [
        {
            "date": "2025-02-07T17:15:08Z",
            "n_issues": 30,
            "n_mrs": 0
        }
    ],
    "gst-devtools": [
        {
            "date": "2025-02-07T17:15:08Z",
            "n_issues": 0,
            "n_mrs": 0
        }
    ],
    "gst-integration-testsuites": [
        {
            "date": "2025-02-07T17:15:08Z",
            "n_issues": 1,
            "n_mrs": 6
        }
    ],
    "gst-docs": [
        {
            "date": "2025-02-07T17:15:08Z",
            "n_issues": 0,
            "n_mrs": 0
        }
    ],
    "gst-examples": [
        {
            "date": "2025-02-07T17:15:08Z",
            "n_issues": 0,
            "n_mrs": 0
        }
    ],
    "gst-build": [
        {
            "date": "2025-02-07T17:15:08Z",
            "n_issues": 0,
            "n_mrs": 0
        }
    ],
    "gst-ci": [
        {
            "date": "2025-02-07T17:15:08Z",
            "n_issues": 0,
            "n_mrs": 0
        }
    ],
    "cerbero": [
        {
            "date": "2025-02-07T17:15:08Z",
            "n_issues": 124,
            "n_mrs": 35
        }
    ]
}
