{
    "gstreamer": [
        {
            "date": "2025-03-05T17:15:01Z",
            "n_issues": 1869,
            "n_mrs": 772
        }
    ],
    "gst-plugins-base": [
        {
            "date": "2025-03-05T17:15:01Z",
            "n_issues": 570,
            "n_mrs": 39
        }
    ],
    "gst-plugins-good": [
        {
            "date": "2025-03-05T17:15:01Z",
            "n_issues": 436,
            "n_mrs": 46
        }
    ],
    "gst-plugins-bad": [
        {
            "date": "2025-03-05T17:15:01Z",
            "n_issues": 803,
            "n_mrs": 69
        }
    ],
    "gst-plugins-ugly": [
        {
            "date": "2025-03-05T17:15:01Z",
            "n_issues": 0,
            "n_mrs": 0
        }
    ],
    "gst-libav": [
        {
            "date": "2025-03-05T17:15:01Z",
            "n_issues": 0,
            "n_mrs": 0
        }
    ],
    "gst-rtsp-server": [
        {
            "date": "2025-03-05T17:15:01Z",
            "n_issues": 56,
            "n_mrs": 0
        }
    ],
    "gstreamer-vaapi": [
        {
            "date": "2025-03-05T17:15:01Z",
            "n_issues": 103,
            "n_mrs": 0
        }
    ],
    "gstreamer-sharp": [
        {
            "date": "2025-03-05T17:15:01Z",
            "n_issues": 34,
            "n_mrs": 1
        }
    ],
    "gst-python": [
        {
            "date": "2025-03-05T17:15:01Z",
            "n_issues": 0,
            "n_mrs": 0
        }
    ],
    "gst-omx": [
        {
            "date": "2025-03-05T17:15:01Z",
            "n_issues": 0,
            "n_mrs": 0
        }
    ],
    "gst-editing-services": [
        {
            "date": "2025-03-05T17:15:01Z",
            "n_issues": 24,
            "n_mrs": 0
        }
    ],
    "gst-devtools": [
        {
            "date": "2025-03-05T17:15:01Z",
            "n_issues": 0,
            "n_mrs": 0
        }
    ],
    "gst-integration-testsuites": [
        {
            "date": "2025-03-05T17:15:01Z",
            "n_issues": 1,
            "n_mrs": 6
        }
    ],
    "gst-docs": [
        {
            "date": "2025-03-05T17:15:01Z",
            "n_issues": 0,
            "n_mrs": 0
        }
    ],
    "gst-examples": [
        {
            "date": "2025-03-05T17:15:01Z",
            "n_issues": 0,
            "n_mrs": 0
        }
    ],
    "gst-build": [
        {
            "date": "2025-03-05T17:15:01Z",
            "n_issues": 0,
            "n_mrs": 0
        }
    ],
    "gst-ci": [
        {
            "date": "2025-03-05T17:15:01Z",
            "n_issues": 0,
            "n_mrs": 0
        }
    ],
    "cerbero": [
        {
            "date": "2025-03-05T17:15:01Z",
            "n_issues": 124,
            "n_mrs": 34
        }
    ]
}
